<svg width="57" height="69" viewBox="0 0 57 69" fill="none" xmlns="http://www.w3.org/2000/svg">
<path d="M49.069 0.100006V9.23501L26.449 61H11.137L32.974 11.584H12.79V21.502H0.261993V0.100006H49.069Z" fill="#FFD200"/>
<path fill-rule="evenodd" clip-rule="evenodd" d="M5.01199 4.85001H56.319V15.4962L33.2669 68.25H15.218L37.055 18.834H20.04V28.752H5.01199V4.85001ZM7.51199 7.35001V26.252H17.54V16.334H40.893L19.056 65.75H31.6311L53.819 14.9738V7.35001H7.51199Z" fill="black"/>
</svg>