PySocks>=1.7.1
aiocache==0.11.1
aiosqlite==0.17.0
beautifulsoup4>=4.9.3
browser-cookie3==0.11.4
cryptography==3.3.2
dnspython==2.1.0
httpx-socks[asyncio]==0.4.1
httpx[brotli]==0.19.0
importlib_metadata==3.7.2
loguru>=0.5.3
mako>=1.1.4
markupsafe==1.1.1
six>=1.15.0
sqlalchemy>=1.4.23
tld>=0.12.5
yaswfp>=0.9.3

[NTLM]
httpx-ntlm
